{
  "extensionName": { "message": "Unminimize Browser Window On Load" },
  "extensionDescription": { "message": "Restores a minimized browser window when any page-load happens." },

  "config_keepTab_caption":   { "message": "Whan a URL is loaded into an existing tab in minimized or background window" },
  "config_keepTab_new_label": { "message": "Activate the window and Replace the tab's content" },
  "config_keepTab_old_label": { "message": "Activate the window but Don't replace the tab's content (cancel the page load)" }
}
